---
http_interactions:
- request:
    method: post
    uri: https://api.spacexdata.com/v4/starlink/query
    body:
      encoding: UTF-8
      string: "{}"
    headers:
      Content-Type:
      - application/json
      User-Agent:
      - Faraday v1.4.1
      Accept-Encoding:
      - gzip;q=1.0,deflate;q=0.6,identity;q=0.3
      Accept:
      - "*/*"
  response:
    status:
      code: 200
      message: OK
    headers:
      Date:
      - Thu, 22 Apr 2021 03:01:41 GMT
      Content-Type:
      - application/json; charset=utf-8
      Transfer-Encoding:
      - chunked
      Connection:
      - keep-alive
      Set-Cookie:
      - __cfduid=de45543b6ca1059494a935d39955030fc1619060501; expires=Sat, 22-May-21
        03:01:41 GMT; path=/; domain=.spacexdata.com; HttpOnly; SameSite=Lax; Secure
      Access-Control-Allow-Origin:
      - "*"
      Access-Control-Expose-Headers:
      - spacex-api-cache,spacex-api-response-time
      Cache-Control:
      - max-age=3600
      Content-Security-Policy:
      - 'default-src ''self'';base-uri ''self'';block-all-mixed-content;font-src ''self''
        https: data:;frame-ancestors ''self'';img-src ''self'' data:;object-src ''none'';script-src
        ''self'';script-src-attr ''none'';style-src ''self'' https: ''unsafe-inline'';upgrade-insecure-requests'
      Etag:
      - '"325f-OGPS9CpmyXYPnWRTWcovZD/cHRE"'
      Expect-Ct:
      - max-age=0
      Referrer-Policy:
      - no-referrer
      Spacex-Api-Cache:
      - MISS
      Spacex-Api-Cache-Online:
      - 'true'
      Spacex-Api-Response-Time:
      - 8ms
      Strict-Transport-Security:
      - max-age=15552000; includeSubDomains
      Vary:
      - Accept-Encoding
      - Origin
      X-Content-Type-Options:
      - nosniff
      X-Dns-Prefetch-Control:
      - 'off'
      X-Download-Options:
      - noopen
      X-Frame-Options:
      - SAMEORIGIN
      X-Permitted-Cross-Domain-Policies:
      - none
      X-Xss-Protection:
      - '0'
      Cf-Cache-Status:
      - DYNAMIC
      Cf-Request-Id:
      - '09991fc44f0000bbe893959000000001'
      Report-To:
      - '{"endpoints":[{"url":"https:\/\/a.nel.cloudflare.com\/report?s=jdDAEeYLTtQpJWolaFBnAmMbN5GXZGVM6Cb5yRTeMbyFneXJSWK4Yf%2BpIxPeyf75C7gFj89ml6Tf0QtgvfwLxF%2FkYY2xm9As91Dr%2F5khTI36nx4%3D"}],"group":"cf-nel","max_age":604800}'
      Nel:
      - '{"report_to":"cf-nel","max_age":604800}'
      Server:
      - cloudflare
      Cf-Ray:
      - 643b9be6edbabbe8-LHR
      Alt-Svc:
      - h3-27=":443"; ma=86400, h3-28=":443"; ma=86400, h3-29=":443"; ma=86400
    body:
      encoding: ASCII-8BIT
      string: '{"docs":[{"spaceTrack":{"CCSDS_OMM_VERS":"2.0","COMMENT":"GENERATED
        VIA SPACE-TRACK.ORG API","CREATION_DATE":"2020-10-13T04:16:08","ORIGINATOR":"18
        SPCS","OBJECT_NAME":"STARLINK-30","OBJECT_ID":"2019-029K","CENTER_NAME":"EARTH","REF_FRAME":"TEME","TIME_SYSTEM":"UTC","MEAN_ELEMENT_THEORY":"SGP4","EPOCH":"2020-10-13T02:56:59.566560","MEAN_MOTION":16.43170483,"ECCENTRICITY":0.0003711,"INCLINATION":52.9708,"RA_OF_ASC_NODE":332.0356,"ARG_OF_PERICENTER":120.7278,"MEAN_ANOMALY":242.0157,"EPHEMERIS_TYPE":0,"CLASSIFICATION_TYPE":"U","NORAD_CAT_ID":44244,"ELEMENT_SET_NO":999,"REV_AT_EPOCH":7775,"BSTAR":0.0022139,"MEAN_MOTION_DOT":0.47180237,"MEAN_MOTION_DDOT":0.000012426,"SEMIMAJOR_AXIS":6535.519,"PERIOD":87.635,"APOAPSIS":159.809,"PERIAPSIS":154.958,"OBJECT_TYPE":"PAYLOAD","RCS_SIZE":"LARGE","COUNTRY_CODE":"US","LAUNCH_DATE":"2019-05-24","SITE":"AFETR","DECAY_DATE":"2020-10-13","DECAYED":1,"FILE":2850561,"GP_ID":163365918,"TLE_LINE0":"0
        STARLINK-30","TLE_LINE1":"1 44244U 19029K   20287.12291165  .47180237  12426-4  22139-2
        0  9995","TLE_LINE2":"2 44244  52.9708 332.0356 0003711 120.7278 242.0157
        16.43170483 77756"},"version":"v0.9","launch":"5eb87d30ffd86e000604b378","longitude":null,"latitude":null,"height_km":null,"velocity_kms":null,"id":"5eed770f096e59000698560d"},{"spaceTrack":{"CCSDS_OMM_VERS":"2.0","COMMENT":"GENERATED
        VIA SPACE-TRACK.ORG API","CREATION_DATE":"2020-09-28T19:26:08","ORIGINATOR":"18
        SPCS","OBJECT_NAME":"STARLINK-74","OBJECT_ID":"2019-029BL","CENTER_NAME":"EARTH","REF_FRAME":"TEME","TIME_SYSTEM":"UTC","MEAN_ELEMENT_THEORY":"SGP4","EPOCH":"2020-09-28T18:35:08.710368","MEAN_MOTION":16.29892189,"ECCENTRICITY":0.0002076,"INCLINATION":52.9971,"RA_OF_ASC_NODE":48.1405,"ARG_OF_PERICENTER":323.1313,"MEAN_ANOMALY":37.5805,"EPHEMERIS_TYPE":0,"CLASSIFICATION_TYPE":"U","NORAD_CAT_ID":44293,"ELEMENT_SET_NO":999,"REV_AT_EPOCH":7653,"BSTAR":0.0024534,"MEAN_MOTION_DOT":0.1135935,"MEAN_MOTION_DDOT":0.000012115,"SEMIMAJOR_AXIS":6570.966,"PERIOD":88.349,"APOAPSIS":194.195,"PERIAPSIS":191.467,"OBJECT_TYPE":"PAYLOAD","RCS_SIZE":"LARGE","COUNTRY_CODE":"US","LAUNCH_DATE":"2019-05-24","SITE":"AFETR","DECAY_DATE":"2020-09-29","DECAYED":1,"FILE":2837086,"GP_ID":162391575,"TLE_LINE0":"0
        STARLINK-74","TLE_LINE1":"1 44293U 19029BL  20272.77440637  .11359350  12115-4  24534-2
        0  9995","TLE_LINE2":"2 44293  52.9971  48.1405 0002076 323.1313  37.5805
        16.29892189 76534"},"version":"v0.9","launch":"5eb87d30ffd86e000604b378","longitude":null,"latitude":null,"height_km":null,"velocity_kms":null,"id":"5eed770f096e59000698560e"},{"spaceTrack":{"CCSDS_OMM_VERS":"2.0","COMMENT":"GENERATED
        VIA SPACE-TRACK.ORG API","CREATION_DATE":"2020-10-13T17:46:09","ORIGINATOR":"18
        SPCS","OBJECT_NAME":"STARLINK-29","OBJECT_ID":"2019-029J","CENTER_NAME":"EARTH","REF_FRAME":"TEME","TIME_SYSTEM":"UTC","MEAN_ELEMENT_THEORY":"SGP4","EPOCH":"2020-10-13T17:09:39.946752","MEAN_MOTION":16.50981164,"ECCENTRICITY":0.0008105,"INCLINATION":52.9786,"RA_OF_ASC_NODE":228.8138,"ARG_OF_PERICENTER":330.1078,"MEAN_ANOMALY":31.0927,"EPHEMERIS_TYPE":0,"CLASSIFICATION_TYPE":"U","NORAD_CAT_ID":44243,"ELEMENT_SET_NO":999,"REV_AT_EPOCH":7928,"BSTAR":0.00010982,"MEAN_MOTION_DOT":0.11982673,"MEAN_MOTION_DDOT":0.000012791,"SEMIMAJOR_AXIS":6514.89,"PERIOD":87.22,"APOAPSIS":142.035,"PERIAPSIS":131.474,"OBJECT_TYPE":"PAYLOAD","RCS_SIZE":"LARGE","COUNTRY_CODE":"US","LAUNCH_DATE":"2019-05-24","SITE":"AFETR","DECAY_DATE":"2020-10-13","DECAYED":1,"FILE":2851295,"GP_ID":163381397,"TLE_LINE0":"0
        STARLINK-29","TLE_LINE1":"1 44243U 19029J   20287.71504568  .11982673  12791-4  10982-3
        0  9997","TLE_LINE2":"2 44243  52.9786 228.8138 0008105 330.1078  31.0927
        16.50981164 79283"},"version":"v0.9","launch":"5eb87d30ffd86e000604b378","longitude":null,"latitude":null,"height_km":null,"velocity_kms":null,"id":"5eed770f096e59000698560f"},{"spaceTrack":{"CCSDS_OMM_VERS":"2.0","COMMENT":"GENERATED
        VIA SPACE-TRACK.ORG API","CREATION_DATE":"2021-04-21T19:20:26","ORIGINATOR":"18
        SPCS","OBJECT_NAME":"STARLINK-76","OBJECT_ID":"2019-029BE","CENTER_NAME":"EARTH","REF_FRAME":"TEME","TIME_SYSTEM":"UTC","MEAN_ELEMENT_THEORY":"SGP4","EPOCH":"2021-04-21T14:05:26.204640","MEAN_MOTION":15.54298908,"ECCENTRICITY":0.0004408,"INCLINATION":52.9947,"RA_OF_ASC_NODE":175.4443,"ARG_OF_PERICENTER":35.5835,"MEAN_ANOMALY":324.5468,"EPHEMERIS_TYPE":0,"CLASSIFICATION_TYPE":"U","NORAD_CAT_ID":44287,"ELEMENT_SET_NO":999,"REV_AT_EPOCH":10602,"BSTAR":0.00085622,"MEAN_MOTION_DOT":0.00056909,"MEAN_MOTION_DDOT":0,"SEMIMAJOR_AXIS":6782.328,"PERIOD":92.646,"APOAPSIS":407.183,"PERIAPSIS":401.204,"OBJECT_TYPE":"PAYLOAD","RCS_SIZE":"LARGE","COUNTRY_CODE":"US","LAUNCH_DATE":"2019-05-24","SITE":"AFETR","DECAY_DATE":null,"DECAYED":0,"FILE":3022491,"GP_ID":175884085,"TLE_LINE0":"0
        STARLINK-76","TLE_LINE1":"1 44287U 19029BE  21111.58710885  .00056909  00000-0  85622-3
        0  9999","TLE_LINE2":"2 44287  52.9947 175.4443 0004408  35.5835 324.5468
        15.54298908106028"},"version":"v0.9","launch":"5eb87d30ffd86e000604b378","longitude":-53.073460493399345,"latitude":27.7263397759166,"height_km":402.37757143991803,"velocity_kms":7.674655887571443,"id":"5eed770f096e590006985610"},{"spaceTrack":{"CCSDS_OMM_VERS":"2.0","COMMENT":"GENERATED
        VIA SPACE-TRACK.ORG API","CREATION_DATE":"2020-09-02T18:57:38","ORIGINATOR":"18
        SPCS","OBJECT_NAME":"STARLINK-23","OBJECT_ID":"2019-029C","CENTER_NAME":"EARTH","REF_FRAME":"TEME","TIME_SYSTEM":"UTC","MEAN_ELEMENT_THEORY":"SGP4","EPOCH":"2020-09-02T05:50:39.789312","MEAN_MOTION":16.40837491,"ECCENTRICITY":0.0004551,"INCLINATION":52.9945,"RA_OF_ASC_NODE":186.9776,"ARG_OF_PERICENTER":271.9057,"MEAN_ANOMALY":198.4437,"EPHEMERIS_TYPE":0,"CLASSIFICATION_TYPE":"U","NORAD_CAT_ID":44237,"ELEMENT_SET_NO":999,"REV_AT_EPOCH":7120,"BSTAR":0.0015299,"MEAN_MOTION_DOT":0.23336896,"MEAN_MOTION_DDOT":0.000012391,"SEMIMAJOR_AXIS":6541.712,"PERIOD":87.76,"APOAPSIS":166.554,"PERIAPSIS":160.6,"OBJECT_TYPE":"PAYLOAD","RCS_SIZE":"LARGE","COUNTRY_CODE":"US","LAUNCH_DATE":"2019-05-24","SITE":"AFETR","DECAY_DATE":"2020-09-02","DECAYED":1,"FILE":2813120,"GP_ID":160599026,"TLE_LINE0":"0
        STARLINK-23","TLE_LINE1":"1 44237U 19029C   20246.24351608 +.23336896 +12391-4
        +15299-2 0  9992","TLE_LINE2":"2 44237 052.9945 186.9776 0004551 271.9057
        198.4437 16.40837491071205"},"version":"v0.9","launch":"5eb87d30ffd86e000604b378","longitude":null,"latitude":null,"height_km":null,"velocity_kms":null,"id":"5eed770f096e590006985611"},{"spaceTrack":{"CCSDS_OMM_VERS":"2.0","COMMENT":"GENERATED
        VIA SPACE-TRACK.ORG API","CREATION_DATE":"2020-08-09T19:11:44","ORIGINATOR":"18
        SPCS","OBJECT_NAME":"STARLINK-22","OBJECT_ID":"2019-029B","CENTER_NAME":"EARTH","REF_FRAME":"TEME","TIME_SYSTEM":"UTC","MEAN_ELEMENT_THEORY":"SGP4","EPOCH":"2020-08-09T13:16:33.420576","MEAN_MOTION":16.42066597,"ECCENTRICITY":0.0004178,"INCLINATION":52.9807,"RA_OF_ASC_NODE":260.6619,"ARG_OF_PERICENTER":316.6235,"MEAN_ANOMALY":43.5158,"EPHEMERIS_TYPE":0,"CLASSIFICATION_TYPE":"U","NORAD_CAT_ID":44236,"ELEMENT_SET_NO":999,"REV_AT_EPOCH":6921,"BSTAR":0.0017311,"MEAN_MOTION_DOT":0.30875389,"MEAN_MOTION_DDOT":0.000012472,"SEMIMAJOR_AXIS":6538.447,"PERIOD":87.694,"APOAPSIS":163.044,"PERIAPSIS":157.581,"OBJECT_TYPE":"PAYLOAD","RCS_SIZE":"LARGE","COUNTRY_CODE":"US","LAUNCH_DATE":"2019-05-24","SITE":"AFETR","DECAY_DATE":"2020-08-09","DECAYED":1,"FILE":2798784,"GP_ID":159069947,"TLE_LINE0":"0
        STARLINK-22","TLE_LINE1":"1 44236U 19029B   20222.55316459 +.30875389 +12472-4
        +17311-2 0  9994","TLE_LINE2":"2 44236 052.9807 260.6619 0004178 316.6235
        043.5158 16.42066597069218"},"version":"v0.9","launch":"5eb87d30ffd86e000604b378","longitude":null,"latitude":null,"height_km":null,"velocity_kms":null,"id":"5eed770f096e590006985612"},{"spaceTrack":{"CCSDS_OMM_VERS":"2.0","COMMENT":"GENERATED
        VIA SPACE-TRACK.ORG API","CREATION_DATE":"2021-04-10T10:26:10","ORIGINATOR":"18
        SPCS","OBJECT_NAME":"STARLINK-26","OBJECT_ID":"2019-029F","CENTER_NAME":"EARTH","REF_FRAME":"TEME","TIME_SYSTEM":"UTC","MEAN_ELEMENT_THEORY":"SGP4","EPOCH":"2021-04-10T10:04:00.819552","MEAN_MOTION":16.41561846,"ECCENTRICITY":0.0004843,"INCLINATION":52.9634,"RA_OF_ASC_NODE":161.2403,"ARG_OF_PERICENTER":7.8568,"MEAN_ANOMALY":353.8836,"EPHEMERIS_TYPE":0,"CLASSIFICATION_TYPE":"U","NORAD_CAT_ID":44240,"ELEMENT_SET_NO":999,"REV_AT_EPOCH":10601,"BSTAR":0.0012328,"MEAN_MOTION_DOT":0.20637293,"MEAN_MOTION_DDOT":0.000012492,"SEMIMAJOR_AXIS":6539.788,"PERIOD":87.721,"APOAPSIS":164.82,"PERIAPSIS":158.486,"OBJECT_TYPE":"PAYLOAD","RCS_SIZE":"LARGE","COUNTRY_CODE":"US","LAUNCH_DATE":"2019-05-24","SITE":"AFETR","DECAY_DATE":"2021-04-10","DECAYED":1,"FILE":3013724,"GP_ID":175267022,"TLE_LINE0":"0
        STARLINK-26","TLE_LINE1":"1 44240U 19029F   21100.41945393  .20637293  12492-4  12328-2
        0  9999","TLE_LINE2":"2 44240  52.9634 161.2403 0004843   7.8568 353.8836
        16.41561846106011"},"version":"v0.9","launch":"5eb87d30ffd86e000604b378","longitude":null,"latitude":null,"height_km":null,"velocity_kms":null,"id":"5eed770f096e590006985613"},{"spaceTrack":{"CCSDS_OMM_VERS":"2.0","COMMENT":"GENERATED
        VIA SPACE-TRACK.ORG API","CREATION_DATE":"2020-09-26T00:36:08","ORIGINATOR":"18
        SPCS","OBJECT_NAME":"STARLINK-27","OBJECT_ID":"2019-029G","CENTER_NAME":"EARTH","REF_FRAME":"TEME","TIME_SYSTEM":"UTC","MEAN_ELEMENT_THEORY":"SGP4","EPOCH":"2020-09-25T23:58:24.572928","MEAN_MOTION":16.44528987,"ECCENTRICITY":0.0005013,"INCLINATION":52.9952,"RA_OF_ASC_NODE":62.9276,"ARG_OF_PERICENTER":292.5876,"MEAN_ANOMALY":67.3813,"EPHEMERIS_TYPE":0,"CLASSIFICATION_TYPE":"U","NORAD_CAT_ID":44241,"ELEMENT_SET_NO":999,"REV_AT_EPOCH":7502,"BSTAR":0.00090269,"MEAN_MOTION_DOT":0.27533098,"MEAN_MOTION_DDOT":0.000012522,"SEMIMAJOR_AXIS":6531.919,"PERIOD":87.563,"APOAPSIS":157.058,"PERIAPSIS":150.509,"OBJECT_TYPE":"PAYLOAD","RCS_SIZE":"LARGE","COUNTRY_CODE":"US","LAUNCH_DATE":"2019-05-24","SITE":"AFETR","DECAY_DATE":"2020-09-26","DECAYED":1,"FILE":2834145,"GP_ID":162165742,"TLE_LINE0":"0
        STARLINK-27","TLE_LINE1":"1 44241U 19029G   20269.99889552  .27533098  12522-4  90269-3
        0  9992","TLE_LINE2":"2 44241  52.9952  62.9276 0005013 292.5876  67.3813
        16.44528987 75025"},"version":"v0.9","launch":"5eb87d30ffd86e000604b378","longitude":null,"latitude":null,"height_km":null,"velocity_kms":null,"id":"5eed770f096e590006985614"},{"spaceTrack":{"CCSDS_OMM_VERS":"2.0","COMMENT":"GENERATED
        VIA SPACE-TRACK.ORG API","CREATION_DATE":"2020-08-23T05:06:09","ORIGINATOR":"18
        SPCS","OBJECT_NAME":"STARLINK-58","OBJECT_ID":"2019-029AM","CENTER_NAME":"EARTH","REF_FRAME":"TEME","TIME_SYSTEM":"UTC","MEAN_ELEMENT_THEORY":"SGP4","EPOCH":"2020-08-23T03:09:46.298304","MEAN_MOTION":16.49769755,"ECCENTRICITY":0.0010115,"INCLINATION":53.006,"RA_OF_ASC_NODE":191.4104,"ARG_OF_PERICENTER":188.7689,"MEAN_ANOMALY":171.4914,"EPHEMERIS_TYPE":0,"CLASSIFICATION_TYPE":"U","NORAD_CAT_ID":44270,"ELEMENT_SET_NO":999,"REV_AT_EPOCH":7027,"BSTAR":0.0001307,"MEAN_MOTION_DOT":0.12051508,"MEAN_MOTION_DDOT":0.000012468,"SEMIMAJOR_AXIS":6518.078,"PERIOD":87.284,"APOAPSIS":146.536,"PERIAPSIS":133.35,"OBJECT_TYPE":"PAYLOAD","RCS_SIZE":"LARGE","COUNTRY_CODE":"US","LAUNCH_DATE":"2019-05-24","SITE":"AFETR","DECAY_DATE":"2020-08-23","DECAYED":1,"FILE":2806775,"GP_ID":159934884,"TLE_LINE0":"0
        STARLINK-58","TLE_LINE1":"1 44270U 19029AM  20236.13178586  .12051508  12468-4  13070-3
        0  9991","TLE_LINE2":"2 44270  53.0060 191.4104 0010115 188.7689 171.4914
        16.49769755 70270"},"version":"v0.9","launch":"5eb87d30ffd86e000604b378","longitude":null,"latitude":null,"height_km":null,"velocity_kms":null,"id":"5eed770f096e590006985615"},{"spaceTrack":{"CCSDS_OMM_VERS":"2.0","COMMENT":"GENERATED
        VIA SPACE-TRACK.ORG API","CREATION_DATE":"2020-08-29T09:36:09","ORIGINATOR":"18
        SPCS","OBJECT_NAME":"TINTIN A","OBJECT_ID":"2018-020B","CENTER_NAME":"EARTH","REF_FRAME":"TEME","TIME_SYSTEM":"UTC","MEAN_ELEMENT_THEORY":"SGP4","EPOCH":"2020-08-29T07:40:05.480832","MEAN_MOTION":16.40201759,"ECCENTRICITY":0.0015282,"INCLINATION":97.4245,"RA_OF_ASC_NODE":260.1382,"ARG_OF_PERICENTER":265.467,"MEAN_ANOMALY":95.5903,"EPHEMERIS_TYPE":0,"CLASSIFICATION_TYPE":"U","NORAD_CAT_ID":43216,"ELEMENT_SET_NO":999,"REV_AT_EPOCH":14020,"BSTAR":0.0016505,"MEAN_MOTION_DOT":0.26379725,"MEAN_MOTION_DDOT":0.000002565,"SEMIMAJOR_AXIS":6543.402,"PERIOD":87.794,"APOAPSIS":175.267,"PERIAPSIS":155.268,"OBJECT_TYPE":"PAYLOAD","RCS_SIZE":"LARGE","COUNTRY_CODE":"US","LAUNCH_DATE":"2018-02-22","SITE":"AFWTR","DECAY_DATE":"2020-08-29","DECAYED":1,"FILE":2810670,"GP_ID":160342842,"TLE_LINE0":"0
        TINTIN A","TLE_LINE1":"1 43216U 18020B   20242.31950788  .26379725  25650-5  16505-2
        0  9991","TLE_LINE2":"2 43216  97.4245 260.1382 0015282 265.4670  95.5903
        16.40201759140202"},"version":"prototype","launch":"5eb87d14ffd86e000604b361","longitude":null,"latitude":null,"height_km":null,"velocity_kms":null,"id":"5eed770f096e590006985616"}],"totalDocs":1445,"offset":0,"limit":10,"totalPages":145,"page":1,"pagingCounter":1,"hasPrevPage":false,"hasNextPage":true,"prevPage":null,"nextPage":2}'
  recorded_at: Thu, 22 Apr 2021 03:01:41 GMT
recorded_with: VCR 6.0.0
